X:1
T: Polkas:
X:2
%%newpage
X:3
X:4
T: Reels:
X:5
%%newpage
X: 6
T: Elzic's Farewell / Sevens
T: Elzic's Farewell
R: Reel
M: 4/4
L: 1/8
K: Ador
|:"Am"e3e eAdA|c3d cBA2|a3b agef|"G"geae gdcd|
"Am"e3e eAdA|c3d cBA2|AGAB AGED|"G"EGAB "Am"A4:|
|:"Am"A,3A, A,B,"C"C2|"D"D2DE DCA,C|D2DE DCA,C|DEDC A,2G,2|
"Am"A,3A, A,B,"C"C2|"D"D2DE DCA,C|DEDC A,B,A,C|DEDC"Am" A,4:|
T: Sevens
R: Reel
M: 4/4
L: 1/8
K: Edor
"Em"E2FE GEAE | B2AG FGB,D | "A"C2DA, EA,FA, | G2FE DEB,D |
"Em"E2FE GEAE | B2AG FGB,D | "A"C2DA, EA,FA, | G2FE DEB,D ||
"Em"E2FE GEAE | B2AG FGB,D | "A"C2DA, EA,FA, | G2FE DEB,D |
"Em"uEB,B,uF B,B,uGB, | uAB,B,uG B,B,uFD | "A"uCA,A,uD A,A,uEA, | uGA,A,uF A,A,uED||
|:"Em"EBeB EBeB | "C"EBeB cAec | "D"DAfA DAgA | DAfA "Bm"GFED |
"Em"EBeB EBeB | "C"EBeB cAec | "D"Adfd AdfA | "Bm"Bfdf BfdD :|
X: 7
T: Maggie's Pancakes
R: reel
M: 4/4
L: 1/8
K: Bm
|:"Bm"fBB/B/B fgfe|"G"dBB/B/B GBdB|"A"cAA "A"dAA "A"ec|"A"AfdB ecAc|
"Bm"dBB/B/B fgfe|"G"dBB/B/B GBdB|"A"cABc ABc(e|"A"e)fec B4:|
|:"G"f2dB GBdB|"A"caec "Bm"dBB2|"G"f2dB GBdB|"A"caec Bcde|
"D"fdd2 fgfe|"G"dBAB GBdB|"A"cA"A"dA "A"ecA(a|"A"a)fec "Bm"B4:|
T: The Golden Stud
R: reel
M: 4/4
L: 1/8
K: Emin
|:"Em"E2 GE F2 FA |G2 GB AB cA |B2 GB AG FA |"C"GE FD ED B,D |
"Em"E2 GE F2 FA |G2 GB AB cA |(3BcB GB AG FA |GE FD E4 :|
|:"Am"c2 AB cB Ac |"Em"B2 Bc BA GB |"D"(3ABA FG AG FA |"Em"GE FD E2 AB |
"Am"c2 AB cB Ac |"Em"(3BcB dB BA GB |"D"(3ABA FG AG FA  |"Em "GE FD E4:|
T: The Banshee
A: James MacMahon
R: Reel
M: 4/4
L: 1/8
K: G
"G" G2 GD EDB,D|"G"GDGB "G7"d2Bd|"C"eged "G"BAGA|"Am"BAGE "D7"EDDE|
"G" G2GD EDB,D|"G"GDGB "G7"d2Bd|"C"eged "G"BAGA|"Em"BAGE "D7"EDD2:|
|:"Am"eaa2"C"efge|"G"dBBAB2Bd|"Em"eB (3BBB gBfB|"Em"eBBAB2Bd|
"Am"eaa2"C"efge|"G"dBBAB2Bd|"C"eged"G" BAGA|"Em"BAGE"D7" EDD2:|


X:8
T:Your hair's on fire
A: Nicholas Williams
R: Reel
M: 4/4
L: 1/8
K: Bm
"Bm"FB~B2dB~B2|FB~B2ABGB|FBBB dBde|"F#m"effe fedc|
"G"GB~B2dB~B2|GB~B2ABGB|"Bm (A)"FBBB dBde|fedcB4:|
|:"Em"g3g- gfef|gfeg "Bm"fB~B2|FBBB dBde|effe fedB|
"Em"fggf gfef|gfeg "Bm"fB~B2|FBBB dBde|fedcB4:|
T: A punch in the dark
A: Gerry O'Connor
R: Reel
M: 4/4
L: 1/8
K: A
"Bm"B3d cBdc|"Bm"BdcBF3A|"Bm"BABd cBdB|"A"caag afec|
"Bm"B3d cBdc|"Bm"BdcBF3G|"A"AE E/E/E ABce|1 "A"fcec"Bm" B4:|2"A" fcec "Bm"Befg||
|:"A"a2ag aece|"D"a2 af "E7"gabg|"A"a2ag aece|"Bm"dcBc "E7"defg|
"A"a2ag aece|"D"a2 af"E7" gabg|"A"a3(a"F#m" a)gfe|1 "Bm"fedc "E7"defg:|2 "Bm"decd "E7"Bd]
T: Mortgage Burn, The
A: Gordon MacLean
M: 4/4
L: 1/8
R: reel
K: Amaj
|:AB|"A"cEBE AEFE|"A"cEBE AEFA|"Bm"BFBc BFBc|"Bm"dB"A"cA "Bm"BAFA|
"A"cEBE AEFE|"A"cEBE AEFA|"Bm"dB"A"cA "Bm"BAFE|"D"FAAB"A" A2:|
|:(AB)|"A"{B}c2 Bc "C#m"{c}e2 ce|"D"fafe"A" c2 (BA)|"Bm"B2 AB "F#m"{B}c2 Bc|"A"ecBA "D"F2 [1(AB)|
"A"{B}c2 Bc "C#m"{c}e2 ce|"D"fafe "A"c2 (BA)|"Bm"B2 (AB) "F#"cBAF|"E"EAAB "A"A2:|
|2 (cB)|"A"AFEF "F#m"A2 (AB)|"C#m"cBce "D"f2 (af)|"A"e2 (cA) "F#m"BcAF|"E"EAAB "A"A2|]

X:9
T: Osmosis
A: Donald Shaw
R: Reel
M: 4/4
L: 1/8
K: Gm
"Dm"DFGF "Gm"GBcB|"Bb"d2(fd) dcBG|"Bb"FBde d2-dB|"Gm"FBdB cdBG|
"Dm"DFGF "Gm"GBcB|"Bb"d2(fd) gfdc|"Bb"B3d cBGF|"Dm"((3DFD) CD "Gm"G4:|
"Gm"g2(bg) gfdc|"Bb"B2(dB) cBGB|"Bb"FBded3B|"Gm"FBdB cBcd|
"Gm"g2(bg) gfdc|"Bb"B2(dB) cBGB|"Gm"gfdc ((3Bcd) (GB)|"Dm"FG(DF)"Gm"G4|
"Gm"g2(ba) agfg|"Bb"d2(fd) gfdc|"Bb"B3e dcBG|"Gm"FBdB "F"c3F|
"Dm"DFGF "Gm"GBcB|"Bb"d2(fd) gfdc|"Bb"B3d cBGF|"Dm"((3DFD) CD "Gm"G4||
T: Slippery Kate
R: Reel
M: 4/4
L: 1/8
K: Dm
"Dm"D2DE FEFG|AdAG FEDC|"Am"A,2EA, FEF^G-|GA^GA =GFDC|
"Dm"D2DE FEFG| A^cde f3g|"Gm"^gaga =gfdc|"A"^GA=GF"Dm"D4:|
|:"Dm"d2fd gagf|cddd- dcAF|"C"E2cE dEcE|"Am"E2^ga =gfdc|
"Dm"d2fd gagf|agfd"Am"e3g|"Gm"^gaga =gfdc|"A"^GA=GF "Dm"D4:|
T: The Folky Gibbon
A: G.Firth, R.Gibbon, G.Duncan	
R: reel
M: 4/4
L: 1/8
K: Dmaj
"D"F2 AB A=cBA| G2 BG dAcd| A2 cA eAce| fed=f edBA:|
fd (3ddd edcd| gd (3ddd edcd| e2 (3AAA eAce| =fedg =fdcd:|
B=c (3ccc Bcdc| dA (3AAA ded=c| B=c (3ccc BcdA| fd (3ddd ed^cd:|
ad (3ddd edcd| gd (3ddd edcd| eAce AceA| ce=fe dg=fd|
ad (3ddd edcd| gd (3ddd edcd| eAce AceA| ce=fe dBAG|]
X:10
T: Flight Of The Penguins
M: 4/4
L: 1/8
K: F#m
|: E | "F#m"EFFF ABBA | dcBd cBAF | "D"DDAD ABcA | "E"BEE/E/E  BcBA |
"F#m"(EF)-FF ABBA | dcBd cBAF | "D"DDAD ABcA | "E"AGEG F3 :|
|: g | "F#m"gafa gfeg | fc c/c/c gcac | "D"(ab)-bg agfe | "E"c^dec BGEG |
"F#m"(EF)-Fa gfeg | fc c/c/c gcac | "D"(ab)-bg agfe | "E"cABG F3 :|
T: Epic Sax Guy (play full bar through transition)
|"F#m"z4|"D" z4|"A" z4|"C#m" z4|
T: Kitchen Criminal
R: reel
M: 4/4
L: 1/8
K: Bmin
|: "Bm"BffB g2fg | fedf edcd | BffB g2fg | "G"aeeg "A"fBBA |
"Bm"BffB g2fg | fedf edcd | ABBA BABf | "G"edcd "A"B2B2 :|
|: "Bm"Bddc- cd"G"A2- | Adcd BdAd | "D"gddf- fd"F#"e2- | edef edcd |
"Bm"Bddc- cd"G"A2- | Adcd BdAd | "D"geeg fedf | "A"edcd B2B2 :|



X:11
T: Up Downey
R: Reel
M: 4/4
L: 1/8
K: Em
B|"Em"EFGAB2eB|BAGB "D"AGFD|"Em"EFGAB2ef|gfed "D"faa2|
"Em"EFGAB2eB|BAGB "D"AGFD|"C"EFGA"Bm"B2ef|"D"gfed "Em"e3:|
|:e|"Em"gfeg fegf|egfe"D"a3a|"Em"gfeg fegf|egfd"Bm"B3e|
"Em"gfeg fegf|egfe"D"a3a|"C"bagb "Bm"agfd|"D"(3efg fd"Em"e3:|
T: The Renewed Contract
C: Mean Lids
R: reel
M: 4/4
L: 1/8
K: A
"A"c3c BAAE|"D"FAAB AFEF|"A"ceef ecAB|"E"cBBA BcAB |
"A"c2c2BAAE|"D"FAAB AFEF|"A"ceef ecAB|"E"cABc "A"A4|
"A"efed cAAE|"D"FAAB AFEF|"A"ceef ecAB|"E"cBBA BcAB|
"A"efed cAAE|"D"FAAB AFEF|"A"ceef ecAB|"E"cABc "A"A4||
|:"A"a3a3a2-|aefc efAB|ceef ecBc|"D"efec "E"efaf|
"A"a2a2-aefa|"D"ffec "A"efAB|ceef ecAB|"E"cABc"A"A4:|


X:12
T: Castlevania - Bloody tears
R: Reel
L: 1/4
K: Gm
Q: 240
[V:M1]"Gm"cf/d3/2 zz2cB       | "F"cz/f/zdz2cB | "Eb"cf/dC/B,/C/ DEcd | "Dm"e>f-fz d>e-ez | 
[V:M2] Ac/BA,/G,/A,/ B,CD2    |  Az/d/zBz2AG   |  Ac/Bc,/B,/c,/ DEFG  |  A>A-Az G>G-Gz | 
[V:M1]"Gm"cf/dA,/G,/A,/ B,CcB | "F"cz/f/zdz2cB | "Eb"cf/dC/B,/C/ DEcd | "Dm"e>f-fz d=e^fa |
[V:M2]Ac/BA,/G,/A,/ B,CD2     | Az/d/zBz2AG    | Ac/Bc,/B,/c,/ DEFG   | A>A-Az ^FGAc |
[V:M1]"Gm"A3/2G3/2g/z/ "F"A3/2G3/2g/z/ | "Eb"A3/2G3/2g/z/ "F"bagf | "Gm"A3/2G3/2g/z/ "F"A3/2G3/2g/z/ | "Eb"A3/2G3/2g/z/ "F"BcA/B/z | 
[V:M2]C3/2B,3/2B/z/ C3/2B,3/2B/z/      | C3/2B,3/2B/z/ bagf       | C3/2B,3/2B/z/ C3/2B,3/2B/z/      | C3/2B,3/2B/z/ BcA/B/z | 
[V:M1]"Gm"G/D/d/D/ c/D/B/D/ A/D/B/D/ A/D/G/D/ | "Dm"A/D/B/D/ c/D/B/D/ A/D/F/D/ A/D/G/D/ | "Gm"G/D/d/D/ c/D/B/D/ A/D/B/D/ A/D/G/D/ | "Dm"A/D/B/D/ c/D/B/D/ A/D/F/D/ A/D/G/D/ :|
[V:M2]G/D/d/D/ c/D/B/D/ A/D/B/D/ A/D/G/D/     | A/D/B/D/ c/D/B/D/ A/D/F/D/ A/D/G/D/ | G/D/d/D/ c/D/B/D/ A/D/B/D/ A/D/G/D/     | A/D/B/D/ c/D/B/D/ A/D/F/D/ A/D/G/D/ :|
T: Wes And Maggie's Ceili Croft
R: reel
M: 4/4
L: 1/8
K: Amaj
"A"A3c "E"B2AB|"F#m"cFFE F2EF|AFFE F2EF|ABcA BAcB|
"A"A2cA "E"B2AB|"F#m"cFFE F2EF|1 AFFE F2EF|ABcA ~B3c:|2 AF~F2 EFBF|ABcA Bcef||
|:"F#m(D)"affe f2ef|afef cB~B2|"C#m(E)"affe f2ec|ABce f2ef:|
"F#m"af~f2 ef~f2|df~f2 ef~f2|"C#m"af~f2 ef~f2|df~f2 e2ef|
"Bm"af~f2 ef~f2|df~f2 ef~f2|"E"~a3b afef|afec BAcB||


X:13
X:14
T: Hornpipes:
X:15
%%newpage
X:16
X:17
T: Squares:
X:18
%%newpage

X:19
X:20
T: Jigs:
X:21
%%newpage

X: 22
T: Differentiation
R: jig
M: 6/8
L: 1/8
K: Emin
~E3 EDE|FEG EAE|BEE B,EB,|CDE GAF|~E3 FEG|
EAE BEd|1 dee BdB|AGA ABG:|2 dee Bde|gaf e3||
~D3 FDG|DAD BDB|~c3 BAG|ABG ABF|~D3 FDG|
DAD cDd|1 ddd cd(B|B)dd _BdA:|2 ~d3 cde|fge d2 f||
~e3 ^geg|a^gf g2 e|^Gee Aee|Bee ^def|~e3 ^gfg|
a^gf g2 b|1 a^ge ^cee|Bee ^def:|2 a^ge ^def|~e3 e3||
T: Zycanthos
R: jig
M: 6/8
L: 1/8
K: Amin
|: a2 a gag | e2 a a2 g | ecc BcB | AFF F3 |
EAB cBA | FAB cBA | B2 B edc| Bcd cBA :|
|: EAB cBA | FAB cBA | B2 B edc | Bcd cBA |
EAB cBA | FAB cBA | B2 B edc | B2 A-A F2 :|
|: d2 d-d2 c | d c2 B2 A | d2-d2 c d | B3 A3 |
d2 d-d2 c | d c2 B2 A | d d-d2 c d | e3 e3 :|

X:23
%Thinking of editing chords for B&D parts to more closely imitate A&C respectively
T: Colonne de la gavre (trad flanders)
M: 6/8
L: 1/8
R: Jig
K: G
|"G"G2A BcB|AGF G2D|"Am7"G2A BcB|AGF G3|
|"G/B"G2A BcB|AGF G2D|"C"G2A BcB|"D"AGF "G"G3|
|:"G"GFG "C"E2E|A2G "D"FED|GFG "C"EFG| "D"AGF "G"G3:|
|"G"d2B d2B|ABc BAG|"D/F#"d2B d2B|cAF G3|
|"G7/F"d2B d2B|ABc BAG|"C/E"d2B d2B|cAF G3|
|:"C"EGG "G"DGG | "D"ABc "G"B2G|"C"EGG "G"DGG | "D"AGF "G"G3 :|
X:24
T: Braveheart - The Legend Spreads
M: 6/8
L: 1/8
R: Jig
K: D
%Q: 200
%|: "d"d2e f2f | gfe fdA | "d"B2d BAG | "d"F/G/AF GFD |
%"d"d2e f2f | gfe fdA | "d"B2d BAG | "d"Adc "d"dfa :|
%"d"dfg a2g- | g2f gfe | "e"dfg a2g- | gfg a3 |
%"f#"fed def | gfe fdA | "g"B2d BAG | "a"Adc dfa |
%"D5"dfg a2g- | g2f gfe | "E5"dfg a2g- | gfg a3 |
%"F#5"fed def | gfe fdA | "G5"B2d BAG | "A5"Adc dfa |
|: "D"d2e f2f | gfe fdA | "G"B2d BAG | "A"F/G/AF GFD |
"D"d2e f2f | gfe fdA | "G"B2d BAG | "A"Adc "D"dfa :|
|: "D"dfg a2g- | g2f gfe | "Bm"dfg a2g- | gfg a3 |
"G"fed def | gfe fdA | "A"B2d BAG | Adc "D"dfa :|
T: Jig du dimanche apres-midi
C: Mean Lids
R: jig
M: 6/8
L: 1/8
K: A
"A"ABc ecB|ABG AEE|"D"FAd ded|"A"cBA"E"B3|
"A"ABc ecB|ABG AEE|"D"DAd "A"cBA|"E"BAG "A"A3:|
"A"cde aba|age "D"d3|Bcd "Bm7"fef|fga "E"fee|
"A"cde aba|age "D"d3|Bcd "A"cBA|"E"BAG "A"A3|
"A"cde aba|age "D"d3|Bcd "Bm7"f2f|fga "E"fee|
"A"cde "E/G#"abg|"D/F#"fge "A/E"dec|"D"Bcd "A/E"cBA|"E"BAG "A"A3||
X:25
T: Martin and Donna's
C: Mean Lids
R: jig
M: 6/8
L: 1/8
K: F
"F"CDF GFG|Acd cAF|"Fsus4"GBA GFG|-GBA GFD|
"F"CDF GFG|Acd cAF|"Fsus4"GBA GFG|ABA G3:|
"Dm"d3 def|"C"edc Gce|"Bb"dcB AFG-|GBA "C"GBc|
"Dm"d3 def|"C"edc Gce|"Bb"dcB AGF|ABA Gcd|
"C"e3 efg|"Dm"fed def|"C"edc cde|"Bb"dcB Bcd|
"C"e3 efg|"Dm"fed def|"C/E"edc BAG|ABA GFD||
T: December March
L: 1/8
M: 6/8
K: A
R: Jig
|: "A"c2c cBA | a3 ga-a | "D"f3 f2e | "E"B3 BAB |1
"A"c2c cBA | "D"F2F FAB | Bcc cBA | "E"B3 BAB :|2
"A"c3 B2A | "D"FA-A GB-B | "E"cA-A A2A | A3 c2e ||
|: "D"f3- f2g | a2f ecf | "E"fec cff | fec Bce |1
"D"f3- f2g | a2f ec2 | "E"f3 f3 | f3- fce :|2
"A"A2B c2e | "D"fa-a f2e | "E"c3 A3 | "A"A3- AAB |]
X:26
T: Slip jigs:
X:27
%%newpage
X:28
X:29
T: Waltzes:
X:30
%%newpage
X:31
X:32
T: Listening:
X:33
%%newpage